16
0 0 6,7 6,8 6,9 6,10 6,11 6,12
1 0 4AFF00 4AFF00 4AFF00 4AFF00 4AFF00 4AFF00
0 1 5,8 6,8 7,8 8,8 9,8 9,9 9,10 9,11 9,12
1 1 1700FF 1700FF 1700FF 1700FF 1700FF 1700FF 1700FF 1700FF 1700FF
0 2 5,11 6,11 7,11 8,11 9,11 10,11
1 2 000000 000000 000000 000000 000000 000000
4 negro azul verde
